100
x < 122360
x >= -80411
x <= 109574
x <= 114025
x <= 116742
x < 119471
x < 112040
x <= 114572
x < 110303
x <= 123209
x >= 3238
x < 112668
x < 115008
x <= 115676
x < 112833
x < 122110
x >= -1967
x < 112194
x < 116135
x < 114398
x >= -11073
x >= 46290
x > -79048
x >= -15414
x < 120277
x > -94308
x <= 110667
x > -103586
x <= 115093
x >= 8056
x < 119457
x >= -69114
x <= 122092
x > 30382
x < 114198
x < 116200
x < 122431
x <= 114449
x <= 115716
x <= 111482
x >= -83915
x >= -120538
x < 110603
x >= -93049
x < 120560
x <= 111501
x > 53705
x < 116683
x >= -85466
x > 77016
x > 38585
x <= 122275
x < 120795
x <= 120008
x >= 38942
x <= 113011
x <= 116513
x <= 114706
x >= 20146
x < 116596
x >= -20594
x < 109971
x >= -14157
x <= 119308
x <= 110353
x > -26078
x > -107131
x > -68081
x >= -8715
x < 119352
x > 77454
x > -115790
x <= 111864
x <= 110968
x < 121570
x <= 115967
x < 120517
x >= -99323
x > -28900
x < 119662
x <= 113725
x >= -88363
x < 120535
x <= 122791
x < 122848
x > -84861
x >= -72285
x > 31339
x >= -81662
x < 109386
x < 122029
x <= 112467
x <= 120483
x >= 76124
x <= 123182
x > -83067
x <= 121747
x <= 111901
x > -77794
x >= -52807
